Title,Class,Level,Scale,Image,Quantity,Spark,Description,Trigger,TriggerAction,Print,Public,id,Power,Speed,Tactics,
Backflip,Cassius,S,20,https://photos.smugmug.com/Interstellar-Fight-Club-IFC/Cassius-May-24-Drop/i-BbTKCxL/0/e619401f/O/Backflip.png,1,1,^Move^Move 0-2<br/>Gain ^b4^Block<br/>^Discard^Discard 1<br/><br/>^SpeedOne^= ^Jump^Jump 0-2 instead,,,NO,YES,cas1,0,1,0,
Easy Pickings,Cassius,S,0,https://photos.smugmug.com/Interstellar-Fight-Club-IFC/Card-Images/Apr-26-Photo-Flurry-IFC/i-whBH2WV/0/79173963/O/download%20%2830%29.png,1,1,(^Range^3): ^Wound^Wound the Highest HP ^TargetOne^Enemy in Range and <br/>^Move^Move 1-2 towards them,Always,"Slot and Flip this when Resolved.<br/>If you Sneak Attack an enemy with ^Wound^Wound, <br/>^Reclaim^Reclaim this Card",NO,YES,cas2,0,1,0,
Fright or Flight,Cassius,S,20,https://photos.smugmug.com/Interstellar-Fight-Club-IFC/Cassius/i-7ZC8nxG/0/479b669b/O/download.png,1,1,^Move^Move 0-3<br/><br/>OR<br/><br/>^JumpLine^Jump <br/>exactly 4 spaces in a Line,,,NO,YES,cas3,0,2,0,
Nimble Stab,Cassius,S,30,https://photos.smugmug.com/Interstellar-Fight-Club-IFC/Card-Images/Apr-26-Photo-Flurry-IFC/i-zpFQkzV/0/9f04a544/O/download%20%287%29%20%282%29.png,1,1,^Move^Move 0-1<br/><br/>(Range^Range^1):^d1^<br/><br/>On ^Hit^Hit:^Move^Move 0-1 and <br/>^Reclaim^Reclaim this Card,,,NO,YES,cas4,0,1,0,
Nothing To See,Cassius,S,30,https://photos.smugmug.com/Interstellar-Fight-Club-IFC/Card-Images/Apr-26-Photo-Flurry-IFC/i-HhCQGWZ/0/4475ef20/O/download%20%2818%29.png,1,2,Gain ^b7^<br/><br/>Lose ^b2^ for each card in your Hand,,,NO,YES,cas5,1,1,0,
Pickpocket,Cassius,S,0,https://photos.smugmug.com/Interstellar-Fight-Club-IFC/Cassius/i-fF2bc3n/0/021c01c7/O/download%20%2838%29.png,1,0,"<img src=""https://photos.smugmug.com/Interstellar-Fight-Club-IFC/Card-Images/Apr-26-Photo-Flurry-IFC/i-dsbtKXh/0/e75b3364/O/Cassius_Pickpocket.png"" width=""400"" height=""400""><br/>On ^Hit^Hit, ^Draw^Draw 1<br/><br/>If you are behind the ^TargetOne^Enemy, <br/>^Draw^Draw +1",,,NO,YES,cas6,0,1,0,
Quick Thinking,Cassius,S,30,https://photos.smugmug.com/Interstellar-Fight-Club-IFC/Cassius-May-24-Drop/i-wqJG8gG/0/7877e4f3/O/Quick%20Thinking.png,1,0,^Discard^Discard 2<br/><br/>Gain ^Tactics^^Tactics^,,,NO,YES,cas7,0,1,0,
Recipe For Success,Cassius,S,0,https://photos.smugmug.com/Interstellar-Fight-Club-IFC/Card-Icons/i-Tz9QwP7/0/a480bb4f/O/download%20%2828%29.png,1,1,"(^Range^2): Apply ^p3^Poison or ^Wound^Wound to a Target in Range<br/><br/>If the Target had 0 of <br/>the chosen Debuff Gain ^Power^<br/><br/>Also if they had neither Debuff, <br/>^Reclaim^Reclaim this card",,,NO,YES,cas8,1,0,1,
Secret Stab,Cassius,S,30,https://photos.smugmug.com/Interstellar-Fight-Club-IFC/Cassius/i-mCFtdtK/0/451847f6/O/Cassius_secretstab.png,1,0,(^Range^1):^d1^ and ^Wound^Wound,Always,"If you^Discard^Discard this from your Hand, Resolve it immediately",NO,YES,cas9,0,0,1,
Shade Clock,Cassius,S,20,https://photos.smugmug.com/Interstellar-Fight-Club-IFC/Card-Images/Apr-26-Photo-Flurry-IFC/i-kQRHwwP/0/be68078b/O/1597338.png,1,1,"^Discard^Discard 1 from your hand<br/><br/>If you are behind and adjacent to an Enemy,<br/><br/>^Blind^Blind them",,,NO,YES,cas10,0,0,1,
Sidestep,Cassius,S,30,https://photos.smugmug.com/Interstellar-Fight-Club-IFC/Cassius-May-24-Drop/i-CZkcf2n/0/05f775c5/O/Sidestep.png,1,0,Gain ^b3^ and ^Move^Move 1-2,,,YES,YES,cas11,0,1,0,
Sleight of Hand,Cassius,S,20,https://photos.smugmug.com/Interstellar-Fight-Club-IFC/Card-Images/Apr-26-Photo-Flurry-IFC/i-6RZ9kG7/0/33d32938/O/12038763.png,1,1,^Draw^Draw ^TacticsX^Cards <br/>^Discard^Discard ^PowerX^<br/><br/>^SpeedOne^ = Do this again,,,NO,YES,cas12,0,1,1,
Sturdy Stab,Cassius,S,20,https://photos.smugmug.com/Interstellar-Fight-Club-IFC/Card-Icons/i-ZRvXcDC/0/d4b4cd1f/O/download%20%2826%29.png,1,1,(^Range^1): ^d1^ <br/>On ^Hit^Hit: ^b3^ <br/><br/>^TacticsOne^=^Reclaim^Reclaim this Card,,,NO,YES,cas13,1,0,1,
Trade Routes,Cassius,S,20,https://photos.smugmug.com/Interstellar-Fight-Club-IFC/Card-Images/Apr-26-Photo-Flurry-IFC/i-rCjFrfB/0/cd91be36/O/download%20%2820%29%20%281%29.png,1,1,Gain 1 of any ^Power^^Speed^^Tactics^Token<br/><br/>All Players may swap up to 2 Tokens for other Token Types,,,NO,YES,cas14,1,0,0,
Back Stab,Cassius,1,30,https://photos.smugmug.com/Interstellar-Fight-Club-IFC/Cassius/i-mPHCJRJ/0/409ff60a/O/download%20%2813%29.png,1,2,"(^Range^1): Double the Target's ^Wound^Wound,<br/>then deal ^d2^",,,NO,YES,cas15,0,1,,
Black Market Brew,Cassius,1,20,https://photos.smugmug.com/Interstellar-Fight-Club-IFC/Card-Images/Apr-26-Photo-Flurry-IFC/i-X4JbbVf/0/c6688554/O/download%20%2814%29.png,1,2,"<img src=""https://photos.smugmug.com/Interstellar-Fight-Club-IFC/Card-Images/Apr-26-Photo-Flurry-IFC/i-Z57mQLj/0/fde39561/O/Cassius_Black%20Market%20Brew.png"" width=""400"" height=""400""><br/>Then you may remove ^p2^ from any adjacent Unit to ^h3^Heal 3 to any Player<br/><br/>Repeat this entire card (^TacticsX^) times",,,NO,YES,cas16,1,1,0,
Bribe,Cassius,1,0,https://photos.smugmug.com/Interstellar-Fight-Club-IFC/Cassius-May-24-Drop/i-Q8hNHNL/0/9743f928/O/Bribe.png,1,0,"Place Tokens on this card equal to the cost of the top card in your Void Pile, then place that card in your Hand",,,NO,YES,cas17,0,0,1,
Chain Leash,Cassius,1,0,https://photos.smugmug.com/Interstellar-Fight-Club-IFC/Cassius-May-24-Drop/i-XthFVfL/0/781e66c4/O/chain%20leash.png,1,1,(^Line^Line 3): ^d2^<br/><br/>Choose to ^Pull^Pull 1 to the Target or<br/>^Pull^Pull yourself until you are adjacent to the Target,,,NO,YES,cas18,0,1,1,
Coordinated Strike,Cassius,1,0,https://photos.smugmug.com/Interstellar-Fight-Club-IFC/Cassius-May-24-Drop/i-LgtVpDW/0/89f2b90e/O/Coordinated%20Attack.png,1,3,(^Range^2): ^d6^,Always,"If you have ^TacticsOne^ when you draw this card, you may spend it to play this immediately for no additional cost",NO,YES,cas19,1,1,0,
Counterfeit,Cassius,1,0,https://photos.smugmug.com/Interstellar-Fight-Club-IFC/Card-Images/Apr-26-Photo-Flurry-IFC/i-4FTsMcc/0/d5843b04/O/download%20%2812%29.png,1,3,^Draw^Draw 2,Always,"If this is Discarded from your hand, draw (1+^TacticsOne^) cards",NO,YES,cas20,0,1,2,
Counterfeit,Cassius,1,20,https://photos.smugmug.com/Interstellar-Fight-Club-IFC/Card-Images/Apr-26-Photo-Flurry-IFC/i-4FTsMcc/0/d5843b04/O/download%20%2812%29.png,1,3,^Draw^Draw 2 Cards,Always,"If you ^Discard^Discard this from your hand, swap it for the top card of your Discard pile",NO,YES,cas21,0,1,2,
Crippling Stab,Cassius,1,0,https://photos.smugmug.com/Interstellar-Fight-Club-IFC/Cassius-May-24-Drop/i-68L4wtC/0/27c5fa26/O/Crippling%20Stab.png,1,1,(^Range^1):^d2^<br/><br/>You may remove ^p2^ Poison from the Target to ^Pin^Pin them and ^Reclaim^Reclaim this card,,,NO,YES,cas22,1,0,1,
Dagger Spray,Cassius,1,20,,1,2,"<img src=""https://photos.smugmug.com/Interstellar-Fight-Club-IFC/Card-Images/Apr-26-Photo-Flurry-IFC/i-zJT39N3/0/262135b8/O/Dreya_Avalanche_Arrow.png"" width=""400"" height=""400""><br/>^Discard^Discard up to (1+^TacticsX^) cards<br/><br/>For each card Discarded, deal ^d1^ to all Targets",,,NO,YES,cas23,1,1,0,
Dancing Blades,Cassius,1,0,https://photos.smugmug.com/Interstellar-Fight-Club-IFC/Cassius-May-24-Drop/i-Gp7pv3h/0/1e03639f/O/Blade%20Dance.png,1,2,(^Range^Range 1): ^d1^<br/>^Move^Move 1<br/><br/>Repeat this for every 3 Cards in your Void Pile (excluding this),,,NO,YES,cas24,0,1,0,
Distraction,Cassius,1,0,https://photos.smugmug.com/Interstellar-Fight-Club-IFC/Card-Images/Apr-26-Photo-Flurry-IFC/i-WCQHfqZ/0/ccc68000/O/11017253.png,1,1,"Choose an Ally or Obstacle within ^Range^Range 3 to ^Taunt^Taunt all Enemies within (1+^TacticsTwo^) spaces of it<br/><br/>Each time an Enemy attacks an Obstacle, ^Wound^Wound them",,,NO,YES,cas25,0,1,0,
Dizzying Stab,Cassius,1,20,https://photos.smugmug.com/Interstellar-Fight-Club-IFC/Cassius/i-4dgzVQS/0/3a2835d0/O/download%20%287%29.png,1,1,Target up to (1+^SpeedX^) Enemies within Range (1+^TacticsOne^)<br/><br/>Deal ^d2^ and ^Scatter^Scatter 1 to all Targets,,,NO,YES,cas26,1,0,0,
Fear Toxin,Cassius,1,20,https://photos.smugmug.com/Interstellar-Fight-Club-IFC/Card-Images/Apr-26-Photo-Flurry-IFC/i-szcgsPk/0/bc914e07/O/2764810.png,1,1,Choose an Enemy adjacent to any Player. Force them to ^Move^Move X Spaces equal to their ^Wound^Wound,,,NO,YES,cas27,1,0,0,
Feint,Cassius,1,20,https://photos.smugmug.com/Interstellar-Fight-Club-IFC/Card-Images/Apr-26-Photo-Flurry-IFC/i-6QbdJSh/0/5974be39/O/10426910.png,1,1,Gain ^bX^Block equal to the number of Cards in your Hand,Always,"If you ^Discard^Discard this from your hand, ^Draw^Draw 1 and ^Reclaim^Reclaim this",NO,YES,cas28,1,0,0,
Knife Toss,Cassius,1,20,https://photos.smugmug.com/Interstellar-Fight-Club-IFC/Cassius-May-24-Drop/i-mr2TsMD/0/e3b0167f/O/Knife%20Toss.png,1,2,(^Range^3): ^d4^<br/><br/>^Draw^Draw 1<br/>^Discard^Discard 1,,,NO,YES,cas29,1,0,1,
Miasma,Cassius,1,0,https://photos.smugmug.com/Interstellar-Fight-Club-IFC/Cassius-May-24-Drop/i-SQwVD6P/0/3d35df34/O/Miasma.png,1,1,,Always,"End-Round: Apply ^PowerX^ ^p^Poison to all Enemies within ^Range^Range ^TacticsX^, then Clear this card if it has more than 8 Tokens on it",NO,YES,cas30,0,0,1,
Ominous Onslaught,Cassius,1,15,https://photos.smugmug.com/Interstellar-Fight-Club-IFC/Cassius-May-24-Drop/i-xTF868v/0/4376eb86/O/Ominous%20Onslaught.png,1,0,Deal (0+^PowerX^) ^d^DMG to the closest <br/>^TacticsX^ Enemies ^SpeedX^times,,,NO,YES,cas31,0,1,0,
Perch,Cassius,1,20,https://photos.smugmug.com/Interstellar-Fight-Club-IFC/Card-Images/Apr-26-Photo-Flurry-IFC/i-dtCFpQg/0/27319a65/O/download%20%2813%29.png,1,1,Select the nearest Obstacle and ^Jump^Jump the shortest distance to an open space adjacent to it<br/><br/>Then Gain ^b4^Block<br/><br/>^SpeedOne^=Choose any open space adjacent to that Obstacle instead,,,NO,YES,cas32,0,1,0,
Poison Dart,Cassius,S,40,https://photos.smugmug.com/Interstellar-Fight-Club-IFC/Cassius/i-rQjZ6Mh/0/e969cf3b/O/download%20%2810%29.png,1,1,(^RangeLine^Line 3): <br/>Apply ^p4^Poison <br/><br/> ^TacticsOne^=^Disarm^Disarm the Target,,,NO,YES,cas33,0,0,1,
Rapid Stab,Cassius,1,20,https://photos.smugmug.com/Interstellar-Fight-Club-IFC/Cassius-May-24-Drop/i-5ZBTMSJ/0/8afef510/O/Rapid%20Stabby.png,1,2,(^Range^1): ^d1^ <br/><br/>Repeat up to ^SpeedThree^ times,,,NO,YES,cas34,0,2,0,
Sabotage,Cassius,1,20,https://photos.smugmug.com/Interstellar-Fight-Club-IFC/Card-Images/Apr-26-Photo-Flurry-IFC/i-bLh5Ws7/0/a4e8eb68/O/download%20%2829%29.png,1,1,Steal 0-4 ^b^Block from an ^TargetOne^Enemy within (^Range^2)<br/><br/>Apply ^Wound^Wound or ^Pin^Pin to them ^PowerX^ times,,,NO,YES,cas35,1,0,0,
Scatter,Cassius,1,0,https://photos.smugmug.com/Interstellar-Fight-Club-IFC/Cassius/i-cfRtmw8/0/ae77d469/O/download%20%2811%29.png,1,2,^Jump^Jump 2 spaces exactly and <br/>Gain^b4^Block<br/><br/>Force an adjacent ^TargetOne^Enemy to<br/>^Scatter^Scatter 1,Always,Slot and Fip this when Resolved once. You may Clear this card to Resolve it again,NO,YES,cas36,0,2,0,
Searing Shadow,Cassius,1,0,https://photos.smugmug.com/Interstellar-Fight-Club-IFC/Cassius/i-rqksm7z/0/8840c4e8/O/download%20%2822%29.png,1,2,"<img src=""https://photos.smugmug.com/Interstellar-Fight-Club-IFC/Card-Images/Apr-26-Photo-Flurry-IFC/i-rW5Fbd7/0/bd555dc8/O/Cassius%20Searing%20Shadow.png"" width=""400"" height=""400""> <br/>(!): Must be an Obstacle to play this card<br/><br/>^Blind^Blind all Targets",,,NO,YES,cas37,1,0,0,
Secret Plans,Cassius,1,0,https://photos.smugmug.com/Interstellar-Fight-Club-IFC/Cassius-May-24-Drop/i-zNvNnG9/0/60beacee/O/Secret%20Plan.png,1,1,Tuck up to (1+^TacticsX^) cards underneath this,Always,Round Start: Clear this card and ^Reclaim^Reclaim the tucked cards,NO,NO,cas38,0,0,1,
Secret Stash,Cassius,1,0,https://photos.smugmug.com/Interstellar-Fight-Club-IFC/Cassius-May-24-Drop/i-XRpHg42/0/c3792f63/O/Secret%20Stash.png,1,1,Place up to 3 ^Power^^Speed^^Tactics^Tokens from your supply on this card,Always,Round Start: ^Reclaim^Reclaim this card and its Tokens,NO,YES,cas39,0,0,0,
Sinister Stab,Cassius,1,0,https://photos.smugmug.com/Interstellar-Fight-Club-IFC/Card-Images/Apr-26-Photo-Flurry-IFC/i-5FfSRMm/0/b0d1adf0/O/download%20%2827%29.png,1,1,"^Discard^Discard 1 from your Hand<br/><br/>(^Range^Range 1): ^d2^ <br/><br/>If you Sneak Attack, apply ^pX^ equal to damage dealt and remove all ^Wound^from the Target",,,NO,YES,cas40,1,0,1,
Soothsayer,Cassius,1,20,https://photos.smugmug.com/Interstellar-Fight-Club-IFC/Card-Images/Apr-26-Photo-Flurry-IFC/i-DMswxwG/0/a9959f9d/O/download%20%2836%29.png,1,2,^Disarm^Disarm up to 2 Enemies within ^Range^Range 2 and ^Taunt^Taunt one of them,,,NO,YES,cas41,0,0,1,
Stalk,Cassius,1,0,https://photos.smugmug.com/Interstellar-Fight-Club-IFC/Cassius-May-24-Drop/i-gtHRNDC/0/6c65674e/O/download%20%2828%29.png,1,0,^Move^Move 0-2<br/>(^Range^1): Apply ^Wound^Wound,Always,"Slot and Fip this when Resolved. If an adjacent Enemy willingly Moves away from you, you may ^Reclaim^Reclaim this card",NO,YES,cas42,0,1,0,
Tactical Stab,Cassius,1,20,https://photos.smugmug.com/Interstellar-Fight-Club-IFC/Cassius-May-24-Drop/i-NXNSst9/0/48b680d5/O/Tactical%20Stab.png,1,1,"(^Range^1): ^dX^, equal to the amount of ^Tactics^ currently in your supply",,,NO,YES,cas43,1,0,0,
Twist The Knife,Cassius,1,20,https://photos.smugmug.com/Interstellar-Fight-Club-IFC/Card-Images/Apr-26-Photo-Flurry-IFC/i-qmfmzsP/0/0d4486dc/O/4406294.png,1,1,^Reclaim^Reclaim the top card of your Void Pile if it is a Stab card<br/><br/>Then Gain X ^Power^ equal to its cost,,,NO,YES,cas44,0,0,1,
Ransom Note,Cassius,1,0,https://photos.smugmug.com/Interstellar-Fight-Club-IFC/Cassius-May-24-Drop/i-kMcxqCC/0/d41065a2/O/Ransom%20Note.png,1,1,"If an adjacent enemy has 1 HP, Choose between:<br/>Gain any 3 Tokens, or<br/>Gain 4 of the same Token type",,,NO,YES,cas45,0,0,1YES,YES
Up My Sleeve,Cassius,1,20,https://photos.smugmug.com/Interstellar-Fight-Club-IFC/Cassius/i-GW2NVtj/0/931bfbe1/O/Cassius_upmysleeve.png,1,1,^Draw^Draw cards until your hand has at least (1+^TacticsOne^+^TacticsOne^) total Cost,,,NO,YES,cas46,0,0,1,
Vault,Cassius,1,20,https://photos.smugmug.com/Interstellar-Fight-Club-IFC/Cassius-May-24-Drop/i-tVkDjxP/0/0516cf69/O/Vault.png,1,2,^Jump^Jump (1+^SpeedX^) and ^Draw^Draw X equal to the final distance traveled,,,NO,YES,cas47,0,2,0,
Terrorwing,Cassius,1,0,https://photos.smugmug.com/Interstellar-Fight-Club-IFC/Cassius/i-P79gBCp/0/c5f428e1/O/Cassius_Terrorwing.png,1,3,Then ^Scatter^^Move^Scramble X spaces equal to the number of Targets,,,NO,YES,cas48,2,1,0,
Antidote,Cassius,2,0,https://photos.smugmug.com/Interstellar-Fight-Club-IFC/Cassius-May-24-Drop/i-8kkZf8s/0/725c18fe/O/Antidote.png,1,1,"Remove up to ^p6^Poison from any Unit within (^Range^2)<br/><br/>For each ^p2^ Poison removed, you may:^h2^Heal or ^Draw^Draw1",,,NO,NO,cas49,1,0,0,
Bag of Blades,Cassius,2,0,https://photos.smugmug.com/Interstellar-Fight-Club-IFC/Cassius-May-24-Drop/i-7JxNXjJ/0/fc5eac3e/O/Bag%20of%20Blades.png,1,1,,Always,"At any time you may place ^Power^ on this card to perform the following:<br/>(^Range^1):^d1^ <br/>If this attack kills, Refund the ^Power^<br/><br/>End-Round: Clear this card if it has 5 or more ^Power^",NO,NO,cas50,1,0,0,
Charlatan Cloak,Cassius,2,0,https://photos.smugmug.com/Interstellar-Fight-Club-IFC/Cassius-May-24-Drop/i-SjdXG2q/0/c267a04e/O/Charlatan%20Cloak.png,1,1,Gain and Place 3 ^SpeedThree^ on this,Reaction,"If you receive ^d^ Attack Dmg, you may Clear this to ",NO,NO,cas51,0,1,0,
Dupe,Cassius,2,0,https://photos.smugmug.com/Interstellar-Fight-Club-IFC/Cassius-May-24-Drop/i-jVHZLcj/0/4728459c/O/Dupe.png,1,2,Play the Top Card of your <br/>Void Pile for 0 Cost,,,NO,NO,cas52,0,1,1,
Got The Goods,Cassius,2,0,https://photos.smugmug.com/Interstellar-Fight-Club-IFC/Cassius-May-24-Drop/i-BMJZXWK/0/8cc142f2/O/Got%20The%20Goods.png,1,1,,Always,"Round Start: ^Draw^Draw 1, then ^Discard^Discard 1",NO,NO,cas53,0,1,2,
Heavy Hood,Cassius,2,0,https://photos.smugmug.com/Interstellar-Fight-Club-IFC/Cassius-May-24-Drop/i-9nZhwgb/0/cb6a38ca/O/Heavy%20Hood.png,1,1,Gain ^b4^ Block,Reaction,"Lose 1 ^Speed^ to Keep all your ^b^Block from last Round, or Clear this and Gain ^Tactics^",NO,NO,cas54,0,0,1,
Nightmare,Cassius,2,0,https://photos.smugmug.com/Interstellar-Fight-Club-IFC/Cassius-May-24-Drop/i-kNqn7XD/0/0c091a6d/O/Nightmare.png,1,3,Search your Void Pile and place all 0-Cost cards into your hand,,,NO,NO,cas55,1,0,2,
Plague Doctor,Cassius,2,0,https://photos.smugmug.com/Interstellar-Fight-Club-IFC/Cassius-May-24-Drop/i-ZWBwznD/0/8f142257/O/Plague%20Doctor.png,1,2,"(^Range^3): Activate the ^p^Poison on an ^TargetOne^Enemy<br/><br/>If they die, Apply their ^p^Poison to the nearest Enemy",,,NO,NO,cas56,0,1,1,
Rendezvous,Cassius,2,0,https://photos.smugmug.com/Interstellar-Fight-Club-IFC/Cassius-May-24-Drop/i-NqWwPLW/0/eab36d7d/O/Rendezvous.png,1,1,^Discard^Discard up to 5 cards<br/>Gain ^Speed^ or ^Tactics^ for each card Discarded,,,NO,NO,cas57,0,0,1,
Screech,Cassius,2,0,https://photos.smugmug.com/Interstellar-Fight-Club-IFC/Cassius-May-24-Drop/i-TfmHNkw/0/9647522d/O/Screech.png,1,2,^Disarm^Disarm all Enemies within ^Range^Range 1<br/><br/>^TacticsOne^= Increase this Range by 1,,,NO,NO,cas58,1,0,1,
Smog Bomb,Cassius,2,10,https://imagedelivery.net/yn0FeX4Pftgdx0G5XU_y6A/cassius_smogbomb/public,1,2,"<img src=""https://photos.smugmug.com/Interstellar-Fight-Club-IFC/Card-Images/Apr-26-Photo-Flurry-IFC/i-PDNBqrL/0/de9749d7/O/Cassius_Corrosive%20Concoction%20%282%29.png"" width=""400"" height=""400""><br/>Each Target of this ability may be ^Blind^Blinded by removing ^p3^Poison from them",,,NO,NO,cas59,0,1,1,
Smuggle,Cassius,2,0,https://photos.smugmug.com/Interstellar-Fight-Club-IFC/Cassius-May-24-Drop/i-2qxJqsB/0/f9a49620/O/Smuggle.png,1,1,"^Discard^Discard up to (1+^SpeedX^) Cards, then <br/>^Draw^Draw that many",,,NO,NO,cas60,0,0,1,
Vanishing Act,Cassius,2,20,,1,0,"Choose up to 0-4 Cards in your Hand and ^Discard^Discard them<br/><br/>For each card Discarded,<br/>Gain ^bX^ Block equal to (2+^PowerTwo^)",,,NO,NO,cas61,0,1,1,
Lurk,Cassius,X,20,https://photos.smugmug.com/Interstellar-Fight-Club-IFC/Cassius/i-xzJzxSf/0/c880caf5/O/download%20%286%29.png,1,0,^Move^Move 0-2<br/><br/>^Speed^ = Jump 0-2 instead,,,NO,NO,cas62,0,1,0,
Flick Of The Wrist,Cassius,X,20,image_link,1,1,,,,NO,NO,cas63,,,,
Special Reserve,Cassius,X,0,https://photos.smugmug.com/Interstellar-Fight-Club-IFC/Cassius-May-24-Drop/i-5qBCSzF/0/92aaac07/O/Special%20Reserve.png,1,2,"^Draw^Draw (^TacticsX^) Cards<br/>Then Gain (4-X) Tokens of any type, where X is the number of Cards in your Draw Pile",,,NO,NO,cas64,1,0,1,
