<?xml version="1.0" encoding="UTF-8"?>
<svg width="300mm" height="297mm" version="1.1" viewBox="0 0 300 297" xml:space="preserve"
  xmlns="http://www.w3.org/2000/svg">
  <path d="m67.088 231.49c0.59037 7.4823 2.8908 14.563 7.2373 20.747 0.94276 1.3412 3.4717 5.7158 5.5364 4.7938 1.4852-0.6633 1.6201-3.4263 2.0005-4.7938 0.87808-3.155 2.1812-7.6373 5.3625-9.153 3.0211 23.906 26.028 31.796 45.46 40.037 4.0203 1.7052 8.0367 3.552 11.899 5.5913 1.5173 0.80089 3.7244 2.6638 5.4918 2.5937 1.8468-0.0732 3.8827-1.87 5.4918-2.6797 4.114-2.0701 8.2966-3.9868 12.509-5.8509 14.4-6.373 31.825-11.618 40.354-25.962 2.6001-4.373 3.1575-8.9672 4.4957-13.73 2.8344 2.0387 4.1289 5.598 5.0564 8.8479 0.40182 1.4084 0.51867 4.3867 2.0048 5.1034 2.244 1.0819 4.5918-3.382 5.5742-4.7983 4.096-5.9043 7.1357-13.152 7.1961-20.442 2.7008 1.3278 3.1672 4.719 3.9742 7.3224 0.32188 1.0392 0.72491 3.0916 2.1409 3.0916 1.6948 0 2.8436-2.5235 3.656-3.7018 2.8805-4.1796 5.4241-8.5776 7.695-13.119 9.4847-18.97 12.81-41.568 7.5513-62.241-0.85276-3.3522-3.2841-7.5717-3.2951-10.984-0.0147-4.4987 2.3542-9.7443 2.9036-14.34 1.0059-8.4089-0.69929-17.894-4.0093-25.628-2.3746-5.5483-6.0175-10.377-11.158-13.617-2.0939-1.3199-7.5729-1.78-8.7201-3.8147-1.3138-2.3304-1.7446-5.62-2.4072-8.1971-1.1875-4.6186-2.4646-9.204-3.9733-13.73-4.9579-14.873-12.298-29.627-23.064-41.189-6.5109-6.9924-13.803-13.086-22.245-17.606-5.9559-3.1886-12.307-5.5495-18.916-6.9516-38.685-8.2064-70.836 21.105-85.704 54.152-3.354 7.4542-5.5959 15.342-7.7923 23.188-0.86313 3.083-1.1722 8.0388-3.1724 10.593-1.5844 2.0234-6.8727 2.3999-9.2009 3.952-6.2784 4.1854-10.09 11.024-12.246 18.1-2.482 8.1456-2.8307 16.628-1.7003 25.018 0.4366 3.2414 2.4539 6.8819 2.4274 10.068-0.01531 1.87-1.3345 4.0041-1.8614 5.7969-1.2424 4.2287-2.3609 8.4507-3.0037 12.814-2.1864 14.842-0.2871 29.771 4.5372 43.935 2.5949 7.6187 6.3723 14.975 10.83 21.662 0.97297 1.4599 2.9811 5.8238 4.982 5.8726 1.3742 0.0336 1.8114-1.8053 2.1293-2.8216 0.9269-2.9634 1.4742-5.8458 3.9739-7.9326m125.09-54.003c-0.0105-15.384-20.47-19.97-32.341-18.254-3.3344 0.48206-6.6671 3.6234-9.7632 3.7643-1.315 0.0601-2.5464-1.0874-3.6612-1.6439-1.9691-0.98303-4.2211-1.8047-6.4071-2.1204-12.038-1.7403-32.298 3.0675-32.341 18.559-4.5265-0.94642-8.948-3.5206-12.814-5.976-6.8437-4.3471-12.836-10.085-16.306-17.517-8.264-17.698-0.06983-39.356 15.696-49.731 9.9756-6.5646 22.21-7.4463 33.256-3.2875 7.893 2.9717 15.36 8.581 24.103 8.156 5.4894-0.26696 10.974-3.7857 15.865-5.9964 7.9491-3.5935 15.964-5.7868 24.713-4.2668 20.822 3.6176 36.072 26.104 31.879 46.888-1.8593 9.215-7.1836 16.844-14.488 22.637-4.4231 3.5081-11.527 8.6508-17.39 8.7881m-82.988-51.956c-1.4053 0.0192-2.9558 0.0964-4.2711 0.63125-7.0042 2.8496-1.7068 13.376 1.8349 16.836 6.2103 6.0663 17.725 6.6543 25.929 5.7762 7.6535-0.8192 1.9386-9.6586-0.43904-12.476-5.5885-6.6225-14.351-10.886-23.054-10.767m81.157-0.0354c-9.1805 0.33531-17.186 4.4826-23.164 11.425-2.4155 2.8051-7.0979 11.412 0.28161 11.873 8.5773 0.53667 19.446 0.31029 25.932-6.0932 5.5696-5.4985 8.0211-17.609-3.0498-17.205m-59.8 42.01c3.7686-0.46283 8.2875 0.0125 11.594 1.9743 2.5015 1.4843 4.4969 4.5451 7.6275 4.6326 3.5709 0.10003 5.3835-3.2554 8.2377-4.7529 6.2595-3.2832 16.319-2.8521 21.192 2.7343 2.2498 2.5787 2.781 6.6707 0.93849 9.6369-0.93239 1.5005-4.7568 4.1628-2.558 5.9147 2.1351 1.7012 6.1029 0.22395 8.1914-0.91469 0.92964-0.50709 2.1278-1.7287 3.2688-1.2238 1.5621 0.69075 2.943 2.9299 4.0536 4.1954 4.2662 4.8615 7.731 11.757 8.2103 18.294 0.22212 3.0306 0.57573 8.177-3.329 9.0316-2.6211 0.57358-5.602-1.492-7.9323-2.4405-5.2029-2.1177-10.666-3.836-16.17-4.9783-16.765-3.48-33.354-3.0065-50.037 0.54736-5.5013 1.1719-11.047 3.1151-16.17 5.414-2.2108 0.99189-4.9972 2.4594-7.2297 0.70814-2.1238-1.6662-1.9792-4.6427-1.9188-7.0619 0.16628-6.6912 3.5791-13.426 7.5888-18.611 1.1008-1.4236 3.1575-4.5213 4.9204-5.1098 1.0566-0.353 2.1741 0.67031 3.0464 1.1316 2.1488 1.1359 6.6314 2.986 8.7021 0.77161 1.6411-1.7549-3.3064-5.8216-3.8424-7.777-1.9499-7.114 5.6627-11.385 11.616-12.117m3.6615 7.1565c-2.3453 0.89792-3.1221 4.1088-1.8742 6.1795 1.7696 2.9366 5.8811 4.0328 8.2688 6.4206 1.4212 1.4212 2.6882 4.6482 5.1944 3.6447 2.7081-1.0843 2.1684-4.8334 1.3412-7.0131-1.4642-3.8586-8.0699-11.092-12.93-9.2318m28.984-0.0403c-4.5927 1.1688-8.9919 5.1248-10.56 9.5771-0.76824 2.1812-0.87687 7.7828 2.9317 6.8474 1.7958-0.44118 2.5378-2.5348 3.7186-3.7442 2.3932-2.4512 6.9124-3.6347 8.4714-6.7763 1.5694-3.1627-1.0718-6.7925-4.5613-5.904m-17.086 42.31c10.963-1.2936 23.464 1.4276 33.866 4.6903 3.5627 1.1176 8.872 2.1055 10.872 5.5962 2.8298 4.9396-0.65262 10.208-4.4658 13.329-7.9525 6.5102-18.59 9.7126-28.678 10.721-13.705 1.3705-28.783-0.71638-40.578-8.2017-4.946-3.1389-11.56-8.9718-8.1801-15.544 1.7171-3.339 6.1094-4.2894 9.4005-5.3905 9.157-3.0635 18.261-4.0798 27.764-5.2011z"/>
</svg>
