<?xml version="1.0" encoding="UTF-8"?>
<svg width="300mm" height="297mm" version="1.1" viewBox="0 0 300 297" xml:space="preserve"
  xmlns="http://www.w3.org/2000/svg">
  <path d="m206.62 60.245c3.559 1.3203 6.8711 3.6513 10.192 5.4818 7.2994 4.0232 14.532 8.1646 21.84 12.173 2.6316 1.4435 5.2532 2.9108 7.8623 4.3942 1.0801 0.61414 2.7597 1.2224 3.2783 2.442 1.138 2.6761 0.55968 6.6996 0.84768 9.5789 0.84214 8.4223 1.1374 16.903 1.9397 25.334 0.53288 5.5974 0.29614 10.326 3.8354 15.093 7.8845 10.619 24.759 7.2482 28.447-5.192 1.5646-5.2762-0.0658-10.953-0.19685-16.307-0.19539-7.9712-1.1808-15.926-1.7256-23.878-0.29876-4.3639-0.41495-8.7511-0.85029-13.104-0.18026-1.8022 0.0475-4.1236-0.55211-5.8239-0.9659-2.7384-3.6609-6.333-5.6658-8.4174-3.2399-3.3677-9.0059-5.151-13.05-7.4308-10.737-6.0528-21.721-11.741-32.614-17.509-8.2723-4.3796-16.539-8.7952-24.752-13.285-2.239-1.2241-6.7223-4.8546-9.3183-4.2158-3.8336 0.94334-7.6425 3.0331-11.357 4.4066-1.5 0.55464-3.9221 1.1231-5.0031 2.355-1.6543 1.885-2.0582 5.6562-2.9257 7.9882-2.7192 7.3105-4.8956 14.82-7.6151 22.131-1.216 3.269-2.1618 6.6338-3.384 9.9007-0.45398 1.2137-0.73498 3.0739-1.8136 3.9012-1.0238 0.78536-2.8004 0.46679-4.0104 0.46679h-19.801c-1.1933 0-2.9641 0.31741-4.038-0.29935-2.3674-1.3596-3.379-7.9841-4.2125-10.475-2.7672-8.2718-5.7278-16.48-8.4951-24.752-0.81011-2.421-1.5975-7.7126-3.7037-9.2561-3.377-2.4749-8.5833-3.4637-12.456-5.0126-1.2903-0.516-3.2396-1.7595-4.6592-1.4416-2.1386 0.47879-4.485 2.3462-6.4063 3.4005-4.347 2.3854-8.735 4.6973-13.104 7.0438-14.744 7.9191-29.389 16.078-44.262 23.754-7.667 3.9574-17.107 7.6046-20.261 16.456-1.704 4.7812-0.85924 10.999-1.3367 16.016-0.87572 9.2024-1.3687 18.443-2.015 27.664-0.34551 4.9297-1.4834 10.274-0.29482 15.142 1.4597 5.9786 6.1762 10.833 12.26 12.08 8.2447 1.6901 16.738-3.0017 19.55-10.916 1.4493-4.0797 1.1494-8.825 1.4426-13.104 0.47843-6.989 1.0078-13.992 1.6715-20.966 0.3104-3.2605-0.35498-7.7001 0.80748-10.77 0.64822-1.7114 3.0148-2.49 4.4836-3.3301 4.1455-2.3715 8.3315-4.681 12.521-6.9742 6.6239-3.6254 13.252-7.2831 19.801-11.042 1.0824-0.62142 5.3781-3.8211 6.4256-2.6959 0.70878 0.76148 0.87913 2.3925 1.1933 3.363 1.0271 3.1694 1.8596 6.4078 2.7795 9.6095 0.33954 1.1817 1.3357 3.1359 0.48717 4.2576-1.7085 2.2582-5.9576 3.9242-8.2648 5.681-4.5511 3.4661-8.6369 7.8044-11.929 12.484-5.0796 7.2211-8.8014 15.226-10.636 23.878-0.53202 2.5092-0.46825 5.0817-0.9662 7.5711-0.51047 2.5523-1.5768 4.9888-1.9997 7.5711-0.37215 2.2728-0.11327 4.7742-0.82117 6.9844-1.0323 3.2233-4.3875 6.2241-5.9698 9.3227-3.7378 7.319-5.8592 15.13-6.6492 23.296-0.98687 10.197 0.84564 20.731 3.3068 30.576 5.5065 22.025 17.811 42.256 36.829 55.111 32.921 22.252 83.088 21.914 116.19 0.34972 14.917-9.7181 26.195-24.452 32.775-40.9 7.5772-18.942 11.074-40.79 4.7815-60.569-1.3678-4.2992-3.518-8.4418-5.9422-12.23-1.2315-1.9245-3.4402-3.912-4.0919-6.1151-0.5856-1.9802-0.46797-4.3534-0.82526-6.4064-1.6263-9.3439-2.6519-18.528-6.4372-27.373-3.4388-8.0341-9.0519-15.7-15.6-21.465-2.2903-2.0165-4.7026-3.9594-7.2799-5.6003-0.92514-0.5888-2.8724-1.2912-3.1385-2.4816-0.32643-1.4598 0.93387-3.9807 1.3477-5.3965 1.216-4.1638 2.354-8.3489 3.538-12.521m-167.73 11.066-5.824 9.0271c1.7518 0.66393 5.5092 2.5727 6.2305 4.395 0.53144 1.343-0.09911 3.5273-0.28305 4.9233-0.35409 2.6895-0.30284 5.4436-0.62286 8.1535-0.6517 5.5226-0.99299 11.329-1.2364 16.889-0.15784 3.6044 0.17005 8.2056-0.90097 11.648-1.253 4.027-6.0154 5.7363-9.2718 2.813-2.498-2.2428-1.5956-5.437-1.4897-8.3457 0.26434-7.263 1.0119-14.605 1.7009-21.84 0.59972-6.2977 0.85615-12.629 1.456-18.928 0.22515-2.3642-0.1388-5.1854 1.13-7.2799 3.4049-5.6213 11.868-8.4424 17.556-11.422 14.043-7.3556 27.979-14.945 41.932-22.466 3.2035-1.7268 6.4183-3.4347 9.6095-5.1833 1.3721-0.75216 3.064-2.0328 4.6592-2.1718 2.0259-0.17617 5.1781 1.4752 6.9759 2.3514 1.6403 0.79934 1.9079 2.6441 2.4394 4.239 1.1686 3.5057 2.4234 6.9785 3.5916 10.483 3.0465 9.1398 6.121 18.287 9.3253 27.373 1.5512 4.3977 4.0412 9.3623 4.6883 13.977 0.70848 5.0537-5.8205 8.261-10.131 7.3772-5.6752-1.1633-6.314-5.0645-7.7319-9.998-2.1199-7.3778-4.2634-14.748-6.3682-22.131-0.85524-2.9996-2.6898-6.7794-2.6979-9.9007-8e-3 -3.3872 4.4562-6.8615 3.9466-10.161-0.12842-0.83341-1.041-1.2181-1.7088-1.55-1.7137-0.85233-5.0386-3.1679-6.9579-3.0357-1.0856 0.07455-1.599 1.6898-1.979 2.5168-1.1022 2.3977-1.783 4.1056-4.1668 5.45-11.321 6.3851-22.707 12.664-34.07 18.97-3.2049 1.7786-6.3635 3.6539-9.6095 5.3563-1.1942 0.62636-2.6863 1.8966-4.0768 1.9478-1.8957 0.0696-4.5354-2.5075-6.1151-3.4781m227.72 9.0271-6.1152-9.0271h-0.2912c-1.1496 1.2545-3.7364 3.4355-5.5327 3.3936-3.2693-0.07658-7.9325-4.0733-10.774-5.6341-9.7446-5.3525-19.375-10.91-29.12-16.261-5.9113-3.2466-11.556-5.4311-13.104-12.656-2.4184 0.66655-4.7229 2.0029-6.9887 3.0724-0.76294 0.36021-2.1831 0.79089-2.5022 1.6636-0.34565 0.94435 0.58501 2.3002 0.95716 3.1263 0.97114 2.1543 3.0369 5.1513 2.8864 7.5711-0.33459 5.388-3.1845 11.411-4.6749 16.598l-4.0768 14.269c-0.69334 2.4126-1.0975 5.3088-2.3162 7.5175-1.4324 2.5957-5.538 3.8284-8.3277 3.4944-3.1941-0.38263-7.8163-3.3001-7.5394-6.9352 0.38437-5.0447 3.4699-10.645 5.066-15.433 3.566-10.698 7.1317-21.425 10.959-32.032 0.87097-2.414 1.366-6.812 3.2506-8.611 1.0611-1.0128 2.9426-1.3474 4.28-1.873 1.2615-0.49562 2.6834-1.3433 4.0768-0.97056 6.0077 1.6062 12.282 6.4477 17.763 9.3917 12.422 6.6719 24.86 13.317 37.273 20.008 5.7512 3.1001 15.664 6.1163 18.556 12.339 1.6604 3.5736 0.87679 9.2071 1.2941 13.104 1.1362 10.614 1.8171 21.381 2.5465 32.032 0.29586 4.3225 1.5236 11.482-4.6332 12.175-7.0368 0.79264-6.3164-8.0172-6.747-12.466-0.76818-7.9401-0.98804-15.935-1.7472-23.878-0.22655-2.3703-1.5666-7.7336-0.46941-9.8471 0.90097-1.7347 4.3354-3.3185 6.0517-4.1303m-105.41 1.1648c-0.76206 5.6306-3.2896 9.7627-0.61442 15.433 5.6053 11.881 22.401 15.022 32.063 6.3557 3.7678-3.3793 4.8569-8.056 6.1154-12.762 2.2652 0.58909 4.1985 2.7608 5.824 4.3691 4.1504 4.1062 10.58 10.605 11.648 16.597-8.9773-2.6356-17.684-7.358-27.373-3.8217-7.3708 2.6901-11.283 10.362-13.977 17.217-6.356 16.178-8.1154 35.931-5.149 52.998 2.103 12.1 9.8873 23.153 23.494 19.801 0.39078 2.2868-1.6686 5.2186-2.5943 7.2799-0.38088 0.84826-0.69917 2.013-1.7897 2.1019-1.4697 0.11998-3.1959-0.61209-4.6432-0.85379-3.9635-0.66218-7.9389-1.3797-11.939-1.7812-10.491-1.053-20.893-1.3383-31.449-1.2128-7.696 0.0915-15.382 1.4242-23.005 2.3738-2.5468 0.31711-5.8842 1.8584-8.4133 1.488-1.0136-0.14851-1.3878-1.3014-1.7518-2.1161-1.0233-2.2894-2.1415-4.6117-2.9388-6.9884 6.1976-1.3427 11.13 0.89805 16.296-4.3723 4.8979-4.9967 6.7112-12.208 7.7051-18.923 2.2783-15.392 0.49561-32.761-4.5907-47.465-2.3765-6.8699-5.674-14.524-12.13-18.501-6.2357-3.8406-15.762-2.4973-22.422-0.46737-2.3686 0.72188-4.5936 2.1429-6.9887 2.661 1.9184-6.5339 8.4511-13.382 13.686-17.437 1.3494-1.0454 3.7069-3.5043 5.501-3.5794 1.1185-0.04689 1.3436 1.58 1.5722 2.3797 0.80866 2.8275 1.1045 5.6961 2.8401 8.1535 4.1335 5.8522 12.192 8.83 19.206 7.7345 7.9672-1.2443 16.517-8.2828 16.878-16.762 0.0967-2.2722-0.56871-4.5491-1.2536-6.6975-0.24636-0.77255-1.0247-2.2172-0.46242-2.9871 0.75624-1.0355 3.8025-0.50727 4.9306-0.50727 4.9757 0 10.88-0.86224 15.725 0.2912m33.779 35.609c3.0989-0.36691 6.3088 0.13657 9.3183 0.85874 2.6741 0.64181 5.2448 1.7405 7.5711 3.2014 17.38 10.915 12.098 35.901 1.0888 49.437-4.4442 5.4643-10.736 10.292-17.978 11.016-9.4022 0.94028-13.682-4.9046-14.975-13.636-1.7457-11.789 0.29645-25.12 3.9181-36.4 1.8302-5.7005 4.308-13.678 11.057-14.477m-96.678 0.2912c8.553-1.0504 11.801 4.2774 14.615 11.565 4.4512 11.528 5.4766 24.21 5.1865 36.4-0.14677 6.1725-2.6353 15.578-9.9007 16.546-4.3484 0.57948-8.6352 1.2038-12.813-0.53493-5.7311-2.3852-9.7889-8.6282-12.919-13.681-9.164-14.792-13.032-38.413 5.9305-47.528 3.1015-1.4909 6.4943-2.3474 9.9007-2.7658m46.009 24.377v48.921l0.17559 4.9073 2.154 0.91523 7.7697-0.17413 0.675-3.3188v-51.251h-10.774m87.65 16.889c5.031 7.3839 5.2308 19.704 4.4175 28.246-2.2294 23.41-11.375 46.453-30.043 61.6-14.434 11.712-32.201 16.387-50.377 17.632-27.893 1.9102-55.887-6.3682-74.468-28.104-13.321-15.583-19.88-37.868-19.88-58.116 0-5.2523 0.9062-10.737 2.5742-15.725 0.55386-1.6572 1.0865-4.0392 2.6674-4.9504 2.2745 8.4872 7.6928 17.207 13.545 23.67 2.8558 3.154 8.104 6.1064 10.03 9.8177 5.8225 11.222 9.6721 23.197 17.659 33.196 4.8502 6.0718 10.831 11.987 17.588 15.933 7.0021 4.089 14.459 7.572 22.713 7.9337 17.639 0.77226 35.21-12.807 44.834-26.488 6.9716-9.9109 9.7213-21.738 15.852-32.02 1.3244-2.221 4.1577-3.7434 5.9978-5.5671 3.2553-3.2262 6.1052-6.9436 8.639-10.751 2.1994-3.3057 4.0747-6.8484 5.6702-10.483 0.8139-1.8544 1.288-4.2678 2.5803-5.824z"/>
</svg>
