Title,Class,Level,Type,Scale,Image,Quantity,Spark,Description,Keep,Trigger,TriggerAction,Print,Public,id
Crippling Slug,Azura,1,Card,0,https://photos.smugmug.com/Interstellar-Fight-Club-IFC/Azura/i-mtJs7mW/0/20b47081/O/Piercing%20Slug.png,1,1,^KeepTap^**Keep** = No Requirement,TRUE,Reaction,(^Line^**3/4**): ^d3^ and ^Pin^**Pin**,NO,NO,azu1
Neurotoxin,Azura,1,Card,0,https://photos.smugmug.com/Interstellar-Fight-Club-IFC/Azura/i-VCBHTc6/0/2537d591/O/Neurotoxin.png,1,2,,FALSE,Next,"Play a card that deals ^d^ Dmg <br/>Convert all ^dX^ into ^pX^ on this card",NO,NO,azu2
Not A Trace,Azura,1,Card,0,https://photos.smugmug.com/Interstellar-Fight-Club-IFC/Azura/i-xBrLKQB/0/2773c364/O/Not%20A%20Trace.png,1,2,^KeepTap^**Keep** = No Requirement,TRUE,Reaction,"^spOne^ = ^bX^ equal to the number of other **Stacks** still in play <br/>^spTwo^ = ^bX^ equal to double the number of other **Stacks** still in play",NO,NO,azu3
Piercing Slug,Azura,1,Card,0,https://photos.smugmug.com/Interstellar-Fight-Club-IFC/Azura/i-NnDWxxJ/0/c726692e/O/Marksman%27s%20Slug.png,1,1,^KeepTap^**Keep** = No Requirement,TRUE,Reaction,(^Line^**3/4**): ^d3^ with ^Pierce^**Pierce**,NO,NO,azu4
Ricochet Slug,Azura,1,Card,0,https://photos.smugmug.com/Interstellar-Fight-Club-IFC/Azura/i-mtrxLzt/0/0833bf00/O/icon_3978946_edited.png,1,1,^KeepTap^**Keep** = No Requirement,TRUE,Reaction,"(^Line^**3**): ^d2^ <br/>Then ^d2^ in a Line (R3) from your first **Target**",NO,NO,azu5
Sidearm,Azura,2,Power,0,https://photos.smugmug.com/Interstellar-Fight-Club-IFC/Azura/i-xGHLgCw/0/01f7fa8b/O/Sidearm.png,1,---,,TRUE,Always,"Whenever you ^Cast^ **Cast 1**: <br/>(R2) ^d2^ <br/>",NO,NO,azu6
Allied Deflection,Azura,2,Card,0,https://photos.smugmug.com/Interstellar-Fight-Club-IFC/Azura/i-m3Z4RdP/0/a74f3b83/O/Allied%20Deflection.png,1,0,,FALSE,Next,"The **Range** values of this card may start from the space of any **Ally** within (^Line^**3**) <br/>If the **Ally** is a **Player**, they gain ^apOne^",NO,NO,azu7
Decoy Popper,Azura,2,Card,0,https://photos.smugmug.com/Interstellar-Fight-Club-IFC/Azura/i-Sb7Fqvg/0/58ba7de1/O/Decoy%20Popper.png,1,3,^KeepTap^**Keep** = No Requirement,TRUE,Cast,"Summon (R3): <br/>**1** HP, **3**^Taunt^**Taunt**",NO,NO,azu8
Disarming Slug,Azura,2,Card,0,https://photos.smugmug.com/Interstellar-Fight-Club-IFC/Azura/i-4hqP67N/0/11e93f30/O/icon_2203079_edited.png,1,1,^KeepTap^**Keep** = No Requirement,TRUE,Cast,(^Line^**2/3**) ^d2^ and ^Disarm^**Disarm**,NO,NO,azu9
Distracting Slug,Azura,2,Card,0,https://photos.smugmug.com/Interstellar-Fight-Club-IFC/Azura/i-NF3CRMx/0/127d7c9b/O/icon_2518852_edited.png,1,1,^KeepTap^**Keep** = No Requirement,TRUE,Cast,"(R5, Line) ^d1^ <br/>All enemies within ^Range^ **2** from the **Target** immediately **Look** ^Look^ it and **Advance** ^Move^ **1**",NO,NO,azu10
Eyes on Target,Azura,2,Card,0,https://photos.smugmug.com/Interstellar-Fight-Club-IFC/Azura/i-JHFLHzV/0/8bace563/O/icon_4311327_edited.png,1,2,,FALSE,AllRight,Gain ^Lob^ on All **Range** values for attacks,NO,NO,azu11
Ghillie Suit,Azura,2,Card,0,https://photos.smugmug.com/Interstellar-Fight-Club-IFC/Azura/i-ktKLM4F/0/1549059f/O/Ghillie%20Suit.png,1,3,Gain **1** ^Stealth^ for every **Enemy** within ^Range^ **2** that you cannot currently **Target** with a ^Line^ **4** attack,FALSE,,,NO,NO,azu12
Keen Eye,Azura,2,Card,0,https://photos.smugmug.com/Interstellar-Fight-Club-IFC/Azura/i-8Qf9DvK/0/6505f83f/O/Keen%20Eye.png,1,0,"^KeepTap^**Keep** = You must perform an **AP** action below: <br/> <br/>^spOne^ = Re-roll this ^ap^**Action Die** (once per turn) <br/>^spTwo^ = Remove one **Enemy Action** and Roll ^apTwo^ **Action Dice**",TRUE,,,NO,NO,azu13
Marksman's Slug,Azura,2,Card,0,https://photos.smugmug.com/Interstellar-Fight-Club-IFC/Azura/i-wK6dt6f/0/6b6aa901/O/icon_4017847_edited.png,1,1,^KeepTap^**Keep** = (^Line^2/3): ^d2^,TRUE,Cast,Gain 1 ^Flex^**Flex** and return this to your hand,NO,NO,azu14
Propulsive Recoil,Azura,2,Card,0,https://photos.smugmug.com/Interstellar-Fight-Club-IFC/Azura/i-9Q2fSMC/0/d10c7d2d/O/Propulsion%20Slug.png,1,2,^Line^ **6** ^d2^ and ^Push^**Push 1**,FALSE,Loop,"If the **Target** was **Pushed**, <br/> **Retreat** ^Move^ 0-1 and you may <br/>^Loop^**Loop** this card",NO,NO,azu15
Rooftop Bound,Azura,2,Card,0,https://photos.smugmug.com/Interstellar-Fight-Club-IFC/Azura/i-rG6fJH9/0/8f41304f/O/icon_3758690_edited.png,1,1,"^Jump^ **2-6** in a **Line** until the first unoccupied space after an **Obstacle** <br/>(must pass at least 1 **Obstacle**)",FALSE,,,NO,NO,azu16
Scout Job,Azura,2,Card,0,https://photos.smugmug.com/Interstellar-Fight-Club-IFC/Azura/i-krLKHtd/0/fe02b443/O/Scout%20Job.png,1,1,"(^Line^**3**): Apply ^Weak^**Weak** <br/>^KeepTap^**Keep** = The **Target** now has exactly 1 ^Weak^**Weak**",TRUE,Cast,"^Line^ **4** Choose any space <br/> All **Enemies** within ^Range^**2** of the space with ^Weak^**Weak** gain ^Wound^**Wound**",NO,NO,azu17
Measure The Breeze,Azura,3,Power,0,https://photos.smugmug.com/Interstellar-Fight-Club-IFC/Azura/i-nSk9g7t/0/d550a154/O/Measure%20The%20Breeze.png,1,---,"Your ^Line^ attacks may 'bend' one space off their path one space (if they have enough Range), stopping immediately",FALSE,,,NO,NO,azu18
Drop Shot,Azura,3,Card,0,https://photos.smugmug.com/Interstellar-Fight-Club-IFC/Azura/i-n39FLzW/0/a0346d3b/O/Drop%20Shot.png,1,2,"(^Lob^, ^Line^**5**): ^d1^ <br/>Add +2 to this Dmg for each **Obstacle** or **Unit** your shot passes over to reach the **Target**",FALSE,,,NO,NO,azu19
Prime Intel,Azura,3,Card,0,https://photos.smugmug.com/Interstellar-Fight-Club-IFC/Azura/i-G2vrn5t/0/966ddfb8/O/Prime%20Intel.png,1,2,"^Cast^ ^spX^ **Stacks** <br/> For each **Enemy** in ^Range^2 with <br/> **2** or less HP, pick between: <br/>^b4^ OR **Cure** **1** OR ^Heal^**2**",FALSE,,,NO,NO,azu20
Professional,Azura,3,Card,0,https://photos.smugmug.com/Interstellar-Fight-Club-IFC/Azura/i-BzHLHCZ/0/68185358/O/Professional.png,1,2,^Cast^ **1** other **Stack** and **Top-Deck** one of those cards,FALSE,Cast,**Top-Deck** a card in your hand and **Heal X** equal to its ^Spark^,NO,NO,azu21
Smoke Screen,Azura,3,Card,0,https://photos.smugmug.com/Interstellar-Fight-Club-IFC/Azura/i-z55bfnT/0/04c6f097/O/Smoke%20Screen.png,1,3,^KeepTap^**Keep** = **Scramble** ^Move^ **1**,TRUE,Reaction,^spOne^ = Choose any space ^Range^ **3** <br/> All **Allies** within ^Range^ **1** of the **Target** gain ^Stealth^ **1**,NO,NO,azu22
The High Ground,Azura,3,Card,0,https://photos.smugmug.com/Interstellar-Fight-Club-IFC/Azura/i-qrWgzxM/0/c8c88ce0/O/The%20High%20Ground.png,1,3,^KeepTap^**Keep** = ^Move^ **1** and end in a space adjacent to an **Obstacle**,TRUE,Reaction,All **Targetable** enemies that are not currently adjacent to an **Obstacle** have their ATK Action Debuffed,NO,NO,azu23
Horizon Rift,Azura,4,Card,0,https://photos.smugmug.com/Interstellar-Fight-Club-IFC/Azura/i-2Ft5dGm/0/58dab3e8/O/Horizon%20Rift.png,1,2,^Lob^ **3** Place a Special Token on an unoccupied space and remove it at the start of your next turn. Until the end of your turn you may start all ^Line^ attacks from this token (including the space itself),FALSE,,,NO,NO,azu24
Look Fire,Azura,2,Card,5,https://photos.smugmug.com/Interstellar-Fight-Club-IFC/Azura/i-Q44QqWN/0/b42cdca3/O/Look%20Fire.png,1,1,^KeepTap^**Keep** = No Requirement,TRUE,Reaction,"^spOne^ = Choose an unoccupied space (R4, Line). All **Allies** may **Advance** ^Move^ 0-2 towards this space",NO,NO,azu25
High-Caliber Mark,Azura,1,Power,10,https://photos.smugmug.com/Interstellar-Fight-Club-IFC/Azura/i-kw7P7hG/0/52ef9911/O/icon_366050_edited.png,1,---,,FALSE,Reaction,"Lose 1 to all **Range Values** (min. 1) this Round and <br/>Gain (1+^spX^**Flex**)",NO,NO,azu26
Called Out,Azura,2,Card,10,https://photos.smugmug.com/Interstellar-Fight-Club-IFC/Azura/i-P4gpwb7/0/cdc8308c/O/Finish%20The%20Job.png,1,1,,TRUE,Reaction,"^spOne^ = If an **Enemy** drops to **2** or less HP, <br/>Force them to ^Look^ and ^Move^ **Advance 2**",NO,NO,azu27
Bolt Action,Azura,1,Power,20,https://photos.smugmug.com/Interstellar-Fight-Club-IFC/Azura/i-MQb3RFQ/0/8063299b/O/Bolt%20Action.png,1,---,,FALSE,Always,"Every time you use a <br/>^Reaction^**Reaction**, you may <br/>^Move^**Move 1**",NO,NO,azu28
Silent Scurry,Azura,1,Card,20,https://icon-library.com/images/fast-rabbit-icon/fast-rabbit-icon-13.jpg,1,1,"^Move^ **Move 2** <br/> If you are now adjacent to an **Enemy**, ^Move^ **Move 2**",FALSE,,,NO,NO,azu29
The Rabbit's Foot,Azura,1,Card,20,https://photos.smugmug.com/Interstellar-Fight-Club-IFC/Azura/i-3WFWRSm/0/0ba80e91/O/The%20Rabbit%27s%20Foot.png,1,1,^Range^ **1** ^d2^,FALSE,Hit," **Retreat** ^Move^ **1-3** from the **Target** in a **Line**",NO,NO,azu30
Tripod,Azura,1,Card,20,https://photos.smugmug.com/Interstellar-Fight-Club-IFC/Azura/i-njzrxDt/0/9c4c47a8/O/Tripod.png,1,0,,FALSE,AllRight,Add +1 to all **Min Range** and **Max Range** values,NO,NO,azu31
Precise Slug,Azura,3,Card,25,https://photos.smugmug.com/Interstellar-Fight-Club-IFC/Azura/i-vNqVjsc/0/0a35cb57/O/High-Caliber%20Mark.png,1,2,^Line^ **5** ^dX^ where **X** is equal to your distance from the **Target**,FALSE,Fatal,^Cast^ **1**,NO,NO,azu32
Tracer,Azura,1,Card,30,https://photos.smugmug.com/Interstellar-Fight-Club-IFC/Azura/i-nD2FckN/0/4b9394b5/O/Precise%20Slug.png,2,1,(^Line^ 3/4):^d2^,FALSE,Hit,"**Rush**^rushOne^ and <br/>^Move^**Move 1**",NO,NO,azu33
Cover Bound,Azura,2,Card,30,https://photos.smugmug.com/Interstellar-Fight-Club-IFC/Azura/i-KbTK5wN/0/31a57b40/O/Cover%20Bound.png,1,1,"^Jump^ **1-3** in a **Line** <br/> If you land next to an **Obstacle**, ^Cast^ **Cast 1**",FALSE,,,NO,NO,azu34
Shrapnel Shot,Azura,2,Card,30,https://photos.smugmug.com/Interstellar-Fight-Club-IFC/Azura/i-6BqbxvZ/0/2e3fd8b9/O/Shrapnel%20Shot.png,1,1,"(^Line^ **2**) <img src=""https://i.ibb.co/jH5870X/Untitled-design.png"" alt=""Untitled-design"" border=""0"" width=""300"" height=""300""> <br/>^spOne^ = ^Blind^**Blind** all **Targets**",FALSE,,,NO,NO,azu35
Perked Ear,Azura,1,Card,40,https://photos.smugmug.com/Interstellar-Fight-Club-IFC/Azura/i-JH3Gj5D/0/008e48fa/O/Perked%20Ear.png,2,0,^b2^ <br/>,FALSE,waitOne,^Move^**Move 2**,NO,NO,azu36
Crossfire,Azura,2,Card,50,https://photos.smugmug.com/Interstellar-Fight-Club-IFC/Azura/i-gnkSzhw/0/0d4ba3f7/O/Crossfire.png,1,1,(**Target**^Target^**x2** |^Line^**2/3**) <br/> ^d3^,FALSE,,,NO,NO,azu37
Critical Blast,Azura,3,Card,50,https://photos.smugmug.com/Interstellar-Fight-Club-IFC/Azura/i-DQcxFZN/0/3bb30c67/O/icon_2549426_edited.png,1,2,(^Line^ **3/3**): ^d7^,FALSE,,,NO,NO,azu38
